
hpeesofsim (*) 512.update2.0 Feb 27 2020, MINT version 5
    (64-bit windows built: Thu Feb 27, 2020 19:34:00 +0000)


AC AC1[1] <LPFRC_lib:LPFRC_1st_order_AC:schematic>   freq=(10 Hz->100 MHz)


Resource usage:
  Total stopwatch time     =     1.14 seconds.

